Chapter 17 Debugging and testing drake projects | The drake R Package User Manual
…
outdated(config)
#> Warning: argument config is deprecated. Use ... to supply make() arguments such
#> as the plan instead.
#> character(0)

17.1.4 But why are my targets out of date?

drake has the option to produce a cache log with the fingerprint of every target and import.

drake_cache_log()
#> # A tibble: 22 x 3
#>    hash             type   name                  
#>    <chr>            <chr>  <chr>                 
#>  1 ecb4739b594986b9 target coef_regression1_large
#>  2 599bea898e306775 target coef_regression1_small
#>  3 44bfee4c258a76d7 target coef_regression2_large
#>  4 b5502b9c62933484 target coef_regression2_small
#>  5 d87293dd4d012762 target large                 
#>  6 f4b89e63bc92af79 import datasets::mtcars      
#>  7 1a0869b7fe7a1e57 import file report.Rmd       
#>  8 6153acbb3f1070de target file report.md        
#>  9 db84c9f752635a13 import random_rows           
#> 10 21935c86f12692e2 import reg1                  
#> # … with 12 more rows
…
