Chapter 4 Finding the best model of gross state product | The drake R Package User Manual
…
plan
#> # A tibble: 171 x 2
#>    target                command                                           
#>    <chr>                 <chr>                                             
#>  1 model_state_year_pcap biglm(gsp ~ state + year + pcap, data = Ecdat::Pr…
#>  2 model_state_year_hwy  biglm(gsp ~ state + year + hwy, data = Ecdat::Pro…
#>  3 model_state_year_wat… biglm(gsp ~ state + year + water, data = Ecdat::P…
#>  4 model_state_year_util biglm(gsp ~ state + year + util, data = Ecdat::Pr…
#>  5 model_state_year_pc   biglm(gsp ~ state + year + pc, data = Ecdat::Prod…
#>  6 model_state_year_emp  biglm(gsp ~ state + year + emp, data = Ecdat::Pro…
#>  7 model_state_year_une… biglm(gsp ~ state + year + unemp, data = Ecdat::P…
#>  8 model_state_pcap_hwy  biglm(gsp ~ state + pcap + hwy, data = Ecdat::Pro…
#>  9 model_state_pcap_wat… biglm(gsp ~ state + pcap + water, data = Ecdat::P…
#> 10 model_state_pcap_util biglm(gsp ~ state + pcap + util, data = Ecdat::Pr…
#> # … with 161 more rows
…
