The drake R Package User Manual
…
plan_data <- drake_plan(
  data = gen_data()
)

plan_sub <-
  gen_data() %>%
  transmute(
    target = paste0("data", a),
    command = paste0("data[", a, ", ]")
  )

plan <- bind_rows(plan_data, plan_sub)
plan
## # A tibble: 501 x 2
##    target command   
##    <chr>  <chr>     
##  1 data   gen_data()
##  2 data1  data[1, ] 
##  3 data2  data[2, ] 
##  4 data3  data[3, ] 
##  5 data4  data[4, ] 
##  6 data5  data[5, ] 
##  7 data6  data[6, ] 
##  8 data7  data[7, ] 
##  9 data8  data[8, ] 
## 10 data9  data[9, ] 
## # ... with 491 more rows
…
