Chapter 5 The mtcars example and workflow plan generation | The drake R Package User Manual
…
outdated(config) # Everything is up to date.
## character(0)

build_times(digits = 4) # How long did it take to make each target?
## # A tibble: 21 x 5
##    item                   type   elapsed        user          system       
##  * <chr>                  <chr>  <S4: Duration> <S4: Duratio> <S4: Duratio>
##  1 "\"report.md\""        target 0.087s         0.088s        0s           
##  2 "\"report.Rmd\""       import 0.001s         0.004s        0s           
##  3 coef_regression1_large target 0.005s         0.008s        0s           
##  4 coef_regression1_small target 0.005s         0.004s        0s           
##  5 coef_regression2_large target 0.006s         0.004s        0s           
##  6 coef_regression2_small target 0.004s         0.004s        0s           
##  7 large                  target 0.006s         0.004s        0.004s       
##  8 random_rows            import 0.002s         0s            0s           
##  9 reg1                   import 0.002s         0s            0s           
## 10 reg2                   import 0.002s         0.004s        0s           
## # ... with 11 more rows
…
