Chapter 6 drake plans | The drake R Package User Manual
…
Transformations reduce typing, especially when combined with tidy evaluation (!!).

lots_of_sds <- as.numeric(1:1e3)

drake_plan(
  data = get_data(),
  analysis = target(
    fun(data, mean = mean_val, sd = sd_val),
    transform = cross(mean_val = c(2, 5, 10, 100, 1000), sd_val = !!lots_of_sds)
  )
)
#> # A tibble: 5,001 x 2
#>    target          command                       
#>    <chr>           <expr>                        
#>  1 data            get_data()                    
#>  2 analysis_2_1    fun(data, mean = 2, sd = 1)   
#>  3 analysis_5_1    fun(data, mean = 5, sd = 1)   
#>  4 analysis_10_1   fun(data, mean = 10, sd = 1)  
#>  5 analysis_100_1  fun(data, mean = 100, sd = 1) 
#>  6 analysis_1000_1 fun(data, mean = 1000, sd = 1)
#>  7 analysis_2_2    fun(data, mean = 2, sd = 2)   
#>  8 analysis_5_2    fun(data, mean = 5, sd = 2)   
#>  9 analysis_10_2   fun(data, mean = 10, sd = 2)  
#> 10 analysis_100_2  fun(data, mean = 100, sd = 2) 
#> # … with 4,991 more rows
…
Character vectors usually work without a hitch, and quotes are converted into dots to make valid target names.

drake_plan(x = target(get_data(y), transform = map(y = c("a", "b", "c"))))
#> # A tibble: 3 x 2
#>   target command      
#>   <chr>  <expr>       
#> 1 x_.a.  get_data("a")
#> 2 x_.b.  get_data("b")
#> 3 x_.c.  get_data("c")

y_vals <- letters
drake_plan(x = target(get_data(y), transform = map(y = !!y_vals)))
#> # A tibble: 26 x 2
#>    target command      
#>    <chr>  <expr>       
#>  1 x_.a.  get_data("a")
#>  2 x_.b.  get_data("b")
#>  3 x_.c.  get_data("c")
#>  4 x_.d.  get_data("d")
#>  5 x_.e.  get_data("e")
#>  6 x_.f.  get_data("f")
#>  7 x_.g.  get_data("g")
#>  8 x_.h.  get_data("h")
#>  9 x_.i.  get_data("i")
#> 10 x_.j.  get_data("j")
#> # … with 16 more rows

6.5.4.2 Named symbol arguments

Symbols passed with explicit argument names define new groupings of existing targets on the fly, and only the map() and cross() transformations can accept them this ways. To generate long symbol lists, use the syms() function from the rlang package. Remember to use the tidy evaluation operator !! inside the transformation.

vals <- rlang::syms(letters)
drake_plan(x = target(get_data(y), transform = map(y = !!vals)))
#> # A tibble: 26 x 2
#>    target command    
#>    <chr>  <expr>     
#>  1 x_a    get_data(a)
#>  2 x_b    get_data(b)
#>  3 x_c    get_data(c)
#>  4 x_d    get_data(d)
#>  5 x_e    get_data(e)
#>  6 x_f    get_data(f)
#>  7 x_g    get_data(g)
#>  8 x_h    get_data(h)
#>  9 x_i    get_data(i)
#> 10 x_j    get_data(j)
#> # … with 16 more rows
…
my_model_fit <- function(x1, x2, data){
  lm(as.formula(paste("mpg ~", x1, "+", x2)), data = data)
}

Our grid of function arguments is a data frame of possible values for x1, x2, and data.

covariates <- setdiff(colnames(mtcars), "mpg") # Exclude the response variable.
args <- t(combn(covariates, 2)) # Take all possible pairs.
colnames(args) <- c("x1", "x2") # The column names must be the argument names of my_model_fit()
args <- tibble::as_tibble(args) # Tibbles are so nice.
args$data <- "mtcars"

args
#> # A tibble: 45 x 3
#>    x1    x2    data  
#>    <chr> <chr> <chr> 
#>  1 cyl   disp  mtcars
#>  2 cyl   hp    mtcars
#>  3 cyl   drat  mtcars
#>  4 cyl   wt    mtcars
#>  5 cyl   qsec  mtcars
#>  6 cyl   vs    mtcars
#>  7 cyl   am    mtcars
#>  8 cyl   gear  mtcars
#>  9 cyl   carb  mtcars
#> 10 disp  hp    mtcars
#> # … with 35 more rows

Each row of args corresponds to a call to my_model_fit(). To actually write out all those function calls, we use map_plan().

map_plan(args, my_model_fit)
#> # A tibble: 45 x 2
#>    target                command                                           
#>    <chr>                 <expr>                                            
#>  1 my_model_fit_501e051c my_model_fit(x1 = "cyl", x2 = "disp", data = "mtc…
#>  2 my_model_fit_d5de1d57 my_model_fit(x1 = "cyl", x2 = "hp", data = "mtcar…
#>  3 my_model_fit_eac6cd8b my_model_fit(x1 = "cyl", x2 = "drat", data = "mtc…
#>  4 my_model_fit_3900ef48 my_model_fit(x1 = "cyl", x2 = "wt", data = "mtcar…
#>  5 my_model_fit_a2d797f6 my_model_fit(x1 = "cyl", x2 = "qsec", data = "mtc…
#>  6 my_model_fit_f5c0ac7a my_model_fit(x1 = "cyl", x2 = "vs", data = "mtcar…
#>  7 my_model_fit_507d2929 my_model_fit(x1 = "cyl", x2 = "am", data = "mtcar…
#>  8 my_model_fit_b5f9a8a3 my_model_fit(x1 = "cyl", x2 = "gear", data = "mtc…
#>  9 my_model_fit_8c4c5d9d my_model_fit(x1 = "cyl", x2 = "carb", data = "mtc…
#> 10 my_model_fit_f9bb916e my_model_fit(x1 = "disp", x2 = "hp", data = "mtca…
#> # … with 35 more rows
…
The data argument should be a symbol. In other words, we want my_model_fit(data = mtcars), not my_model_fit(data = "mtcars"). So we use the syms() function from the rlang package turn args$data into a list of symbols.

The default argument names are ugly, so we can add a new "id" column to args (or select one with the id argument of map_plan()).

# Fixes (1)
args$data <- rlang::syms(args$data)

# Alternative if each element of `args$data` is code with multiple symbols:
# args$data <- purrr::map(args$data, rlang::parse_expr)

# Fixes (2)
args$id <- paste0("fit_", args$x1, "_", args$x2)

args
#> # A tibble: 45 x 4
#>    x1    x2    data   id          
#>    <chr> <chr> <list> <chr>       
#>  1 cyl   disp  <sym>  fit_cyl_disp
#>  2 cyl   hp    <sym>  fit_cyl_hp  
#>  3 cyl   drat  <sym>  fit_cyl_drat
#>  4 cyl   wt    <sym>  fit_cyl_wt  
#>  5 cyl   qsec  <sym>  fit_cyl_qsec
#>  6 cyl   vs    <sym>  fit_cyl_vs  
#>  7 cyl   am    <sym>  fit_cyl_am  
#>  8 cyl   gear  <sym>  fit_cyl_gear
#>  9 cyl   carb  <sym>  fit_cyl_carb
#> 10 disp  hp    <sym>  fit_disp_hp 
#> # … with 35 more rows

Much better.

plan <- map_plan(args, my_model_fit)
plan
#> # A tibble: 45 x 2
#>    target       command                                             
#>    <chr>        <expr>                                              
#>  1 fit_cyl_disp my_model_fit(x1 = "cyl", x2 = "disp", data = mtcars)
#>  2 fit_cyl_hp   my_model_fit(x1 = "cyl", x2 = "hp", data = mtcars)  
#>  3 fit_cyl_drat my_model_fit(x1 = "cyl", x2 = "drat", data = mtcars)
#>  4 fit_cyl_wt   my_model_fit(x1 = "cyl", x2 = "wt", data = mtcars)  
#>  5 fit_cyl_qsec my_model_fit(x1 = "cyl", x2 = "qsec", data = mtcars)
#>  6 fit_cyl_vs   my_model_fit(x1 = "cyl", x2 = "vs", data = mtcars)  
#>  7 fit_cyl_am   my_model_fit(x1 = "cyl", x2 = "am", data = mtcars)  
#>  8 fit_cyl_gear my_model_fit(x1 = "cyl", x2 = "gear", data = mtcars)
#>  9 fit_cyl_carb my_model_fit(x1 = "cyl", x2 = "carb", data = mtcars)
#> 10 fit_disp_hp  my_model_fit(x1 = "disp", x2 = "hp", data = mtcars) 
#> # … with 35 more rows

We may also want to retain information about the constituent function arguments of each target. With map_plan(trace = TRUE), we can append the columns of args alongside the usual "target" and "command" columns of our plan.

map_plan(args, my_model_fit, trace = TRUE)
#> # A tibble: 45 x 6
#>    target     command                           x1    x2    data  id       
#>    <chr>      <expr>                            <chr> <chr> <exp> <chr>    
#>  1 fit_cyl_d… my_model_fit(x1 = "cyl", x2 = "d… cyl   disp  mtca… fit_cyl_…
#>  2 fit_cyl_hp my_model_fit(x1 = "cyl", x2 = "h… cyl   hp    mtca… fit_cyl_…
#>  3 fit_cyl_d… my_model_fit(x1 = "cyl", x2 = "d… cyl   drat  mtca… fit_cyl_…
#>  4 fit_cyl_wt my_model_fit(x1 = "cyl", x2 = "w… cyl   wt    mtca… fit_cyl_…
#>  5 fit_cyl_q… my_model_fit(x1 = "cyl", x2 = "q… cyl   qsec  mtca… fit_cyl_…
#>  6 fit_cyl_vs my_model_fit(x1 = "cyl", x2 = "v… cyl   vs    mtca… fit_cyl_…
#>  7 fit_cyl_am my_model_fit(x1 = "cyl", x2 = "a… cyl   am    mtca… fit_cyl_…
#>  8 fit_cyl_g… my_model_fit(x1 = "cyl", x2 = "g… cyl   gear  mtca… fit_cyl_…
#>  9 fit_cyl_c… my_model_fit(x1 = "cyl", x2 = "c… cyl   carb  mtca… fit_cyl_…
#> 10 fit_disp_… my_model_fit(x1 = "disp", x2 = "… disp  hp    mtca… fit_disp…
#> # … with 35 more rows
…
