Chapter 6 Static branching | The drake R Package User Manual
…
Transformations reduce typing, especially when combined with tidy evaluation (!!).

lots_of_sds <- as.numeric(1:1e3)

drake_plan(
  data = get_data(),
  analysis = target(
    fun(data, mean = mean_val, sd = sd_val),
    transform = cross(mean_val = c(2, 5, 10, 100, 1000), sd_val = !!lots_of_sds)
  )
)
#> # A tibble: 5,001 x 2
#>    target          command                       
#>    <chr>           <expr>                        
#>  1 data            get_data()                    
#>  2 analysis_2_1    fun(data, mean = 2, sd = 1)   
#>  3 analysis_5_1    fun(data, mean = 5, sd = 1)   
#>  4 analysis_10_1   fun(data, mean = 10, sd = 1)  
#>  5 analysis_100_1  fun(data, mean = 100, sd = 1) 
#>  6 analysis_1000_1 fun(data, mean = 1000, sd = 1)
#>  7 analysis_2_2    fun(data, mean = 2, sd = 2)   
#>  8 analysis_5_2    fun(data, mean = 5, sd = 2)   
#>  9 analysis_10_2   fun(data, mean = 10, sd = 2)  
#> 10 analysis_100_2  fun(data, mean = 100, sd = 2) 
#> # … with 4,991 more rows
…
drake_slice(dataset, slices = 50, index = 2)
#> # A tibble: 3 x 5
#>   Sepal.Length Sepal.Width Petal.Length Petal.Width Species
#>          <dbl>       <dbl>        <dbl>       <dbl> <fct>  
#> 1          4.6         3.1          1.5         0.2 setosa 
#> 2          5           3.6          1.4         0.2 setosa 
#> 3          5.4         3.9          1.7         0.4 setosa

drake_slice(dataset, slices = 3, index = 1, margin = 2)
#> # A tibble: 150 x 2
#>    Sepal.Length Sepal.Width
#>           <dbl>       <dbl>
#>  1          5.1         3.5
#>  2          4.9         3  
#>  3          4.7         3.2
#>  4          4.6         3.1
#>  5          5           3.6
#>  6          5.4         3.9
#>  7          4.6         3.4
#>  8          5           3.4
#>  9          4.4         2.9
#> 10          4.9         3.1
#> # … with 140 more rows
…
Character vectors usually work without a hitch, and quotes are converted into dots to make valid target names.

drake_plan(x = target(get_data(y), transform = map(y = c("a", "b", "c"))))
#> # A tibble: 3 x 2
#>   target command      
#>   <chr>  <expr>       
#> 1 x_a    get_data("a")
#> 2 x_b    get_data("b")
#> 3 x_c    get_data("c")

y_vals <- letters
drake_plan(x = target(get_data(y), transform = map(y = !!y_vals)))
#> # A tibble: 26 x 2
#>    target command      
#>    <chr>  <expr>       
#>  1 x_a    get_data("a")
#>  2 x_b    get_data("b")
#>  3 x_c    get_data("c")
#>  4 x_d    get_data("d")
#>  5 x_e    get_data("e")
#>  6 x_f    get_data("f")
#>  7 x_g    get_data("g")
#>  8 x_h    get_data("h")
#>  9 x_i    get_data("i")
#> 10 x_j    get_data("j")
#> # … with 16 more rows

6.0.4.2 Named symbol arguments

Symbols passed with explicit argument names define new groupings of existing targets on the fly, and only the map() and cross() transformations can accept them this ways. To generate long symbol lists, use the syms() function from the rlang package. Remember to use the tidy evaluation operator !! inside the transformation.

vals <- rlang::syms(letters)
drake_plan(x = target(get_data(y), transform = map(y = !!vals)))
#> # A tibble: 26 x 2
#>    target command    
#>    <chr>  <expr>     
#>  1 x_a    get_data(a)
#>  2 x_b    get_data(b)
#>  3 x_c    get_data(c)
#>  4 x_d    get_data(d)
#>  5 x_e    get_data(e)
#>  6 x_f    get_data(f)
#>  7 x_g    get_data(g)
#>  8 x_h    get_data(h)
#>  9 x_i    get_data(i)
#> 10 x_j    get_data(j)
#> # … with 16 more rows
…
