Chapter 15 Storage | The drake R Package User Manual
…
make(my_plan, verbose = 0L)
head(list.files(".drake/data"))
#> [1] "01334604535d9c73.rds" "03576eaeae27d5c6.rds" "03a31e2707a82c3a.rds"
#> [4] "05a7f2b39dc113d0.rds" "08ab38c38f6d8ffd.rds" "0e4abbd0ac546e0e.rds"
head(list.files(".drake/keys/objects"))
#> [1] "coef_regression1_large"       "coef_regression1_small"      
#> [3] "coef_regression2_large"       "coef_regression2_small"      
#> [5] "large"                        "n-MRQXIYLTMV2HGOR2NV2GGYLSOM"

This makes RDS caches difficult to share with collaborators and put under version control. For the sake of portability, you may wish to work with database cashes as the next section describes.

Alternatively, you can track changes in a cache log with fingerprints of all your targets.

drake_cache_log()
#> # A tibble: 22 x 3
#>    hash             type   name                  
#>    <chr>            <chr>  <chr>                 
#>  1 ecb4739b594986b9 target coef_regression1_large
#>  2 599bea898e306775 target coef_regression1_small
#>  3 44bfee4c258a76d7 target coef_regression2_large
#>  4 b5502b9c62933484 target coef_regression2_small
#>  5 d87293dd4d012762 target large                 
#>  6 f4b89e63bc92af79 import datasets::mtcars      
#>  7 1a0869b7fe7a1e57 import file report.Rmd       
#>  8 6153acbb3f1070de target file report.md        
#>  9 db84c9f752635a13 import random_rows           
#> 10 21935c86f12692e2 import reg1                  
#> # … with 12 more rows
make(my_plan, verbose = 0L, cache_log_file = TRUE)
read_csv("drake_cache.csv", col_types = cols())
#> # A tibble: 22 x 3
#>    hash             type   name                  
#>    <chr>            <chr>  <chr>                 
#>  1 ecb4739b594986b9 target coef_regression1_large
#>  2 599bea898e306775 target coef_regression1_small
#>  3 44bfee4c258a76d7 target coef_regression2_large
#>  4 b5502b9c62933484 target coef_regression2_small
#>  5 d87293dd4d012762 target large                 
#>  6 f4b89e63bc92af79 import datasets::mtcars      
#>  7 1a0869b7fe7a1e57 import file report.Rmd       
#>  8 6153acbb3f1070de target file report.md        
#>  9 db84c9f752635a13 import random_rows           
#> 10 21935c86f12692e2 import reg1                  
#> # … with 12 more rows
…
