The drake R Package User Manual
…
            The drake R Package User Manual

L Time: logging, prediction, and strategy

Thanks to Jasper Clarkberg, drake records how long it takes to build each target. For large projects that take hours or days to run, this feature becomes important for planning and execution.

library(drake)
load_mtcars_example() # Get the code with drake_example("mtcars").
make(my_plan, jobs = 2)

build_times(digits = 8) # From the cache.
## # A tibble: 21 x 5
##    item                  type   elapsed        user          system       
##  * <chr>                 <chr>  <S4: Duration> <S4: Duratio> <S4: Duratio>
##  1 "\"report.md\""       target 0.115s         0.096s        0.02s        
##  2 "\"report.Rmd\""      import 0.005s         0.008s        0s           
##  3 coef_regression1_lar… target 0.024s         0.016s        0.004s       
##  4 coef_regression1_sma… target 0.015s         0.016s        0s           
##  5 coef_regression2_lar… target 0.023s         0.008s        0.008s       
##  6 coef_regression2_sma… target 0.017s         0.016s        0.004s       
##  7 large                 target 0.021s         0.012s        0.008s       
##  8 random_rows           import 0.005s         0.004s        0s           
##  9 reg1                  import 0.005s         0.004s        0s           
## 10 reg2                  import 0.005s         0.004s        0s           
## # ... with 11 more rows
…
