The User Manual of the drake R Package
…
outdated(config) # Everything is up to date.
## character(0)

build_times(digits = 4) # How long did it take to make each target?
## # A tibble: 28 x 5
##    item                   type   elapsed        user           system     
##  * <chr>                  <chr>  <S4: Duration> <S4: Duration> <S4: Durat>
##  1 "\"report.md\""        target 0.117s         0.064s         0.005s     
##  2 "\"report.Rmd\""       import 0.019s         0.002s         0s         
##  3 coef_regression1_large target 0.027s         0.008s         0s         
##  4 coef_regression1_small target 0.029s         0.005s         0.002s     
##  5 coef_regression2_large target 0.027s         0.006s         0.001s     
##  6 coef_regression2_small target 0.034s         0.006s         0.001s     
##  7 data.frame             import 0.06s          0.042s         0.002s     
##  8 knit                   import 0.062s         0.04s          0.001s     
##  9 large                  target 0.027s         0.008s         0s         
## 10 lm                     import 0.048s         0.014s         0.001s     
## # ... with 18 more rows
…
