The User Manual of the drake R Package
…
            The User Manual of the drake R Package

Chapter 10 Time: logging, prediction, and strategy

Thanks to Jasper Clarkberg, drake records how long it takes to build each target. For large projects that take hours or days to run, this feature becomes important for planning and execution.

library(drake)
load_mtcars_example() # Get the code with drake_example("mtcars").
make(my_plan, jobs = 2)

build_times(digits = 8) # From the cache.
## # A tibble: 28 x 5
##    item                   type   elapsed        user           system     
##  * <chr>                  <chr>  <S4: Duration> <S4: Duration> <S4: Durat>
##  1 "\"report.md\""        target 0.127s         0.068s         0.011s     
##  2 "\"report.Rmd\""       import 0.023s         0.002s         0.002s     
##  3 coef_regression1_large target 0.032s         0.008s         0s         
##  4 coef_regression1_small target 0.028s         0.008s         0s         
##  5 coef_regression2_large target 0.026s         0.008s         0.001s     
##  6 coef_regression2_small target 0.03s          0.008s         0.001s     
##  7 data.frame             import 0.062s         0.034s         0.002s     
##  8 knit                   import 0.059s         0.033s         0.001s     
##  9 large                  target 0.04s          0.009s         0s         
## 10 lm                     import 0.044s         0.016s         0s         
## # ... with 18 more rows
…
